5.884900000000000E+04, 58848, 7.578000000000000E+03, 1.000000000000000E-03, 8.790000000000001E+01, 0.000000000000000E+00, 0.000000000000000E+00, 1.000000000000000E-03, 1.500000000000000E+02, 1.840000000000000E+00, 1.840000000000000E+00, 1.280000000000000E+00, 1.000000000000000E+00
5.884900000000000E+04, 58848, 8.046896244072930E+03, 1.461827050507990E-01, 9.077421337583650E+01, 5.024844960812350E-05, 7.402906665296260E+01, 3.015524251022760E+02, 1.500000000000000E+02, 1.840000000000000E+00, 1.840000000000000E+00, 1.280000000000000E+00, 1.000000000000000E+00
5.884900000000000E+04, 58848, 9.929097187361620E+03, 2.662848711404870E-01, 8.713760559476140E+01, 1.800000867833760E+02, 1.451632006167370E+02, 1.996830679117000E+01, 1.500000000000000E+02, 1.840000000000000E+00, 1.840000000000000E+00, 1.280000000000000E+00, 1.000000000000000E+00
5.884900000000000E+04, 58848, 9.047856659549070E+03, 2.062992906156060E-01, 7.506855415335130E+01, 3.599997696953370E+02, 3.143829769619830E+02, 3.044803208645620E+01, 1.500000000000000E+02, 1.840000000000000E+00, 1.840000000000000E+00, 1.280000000000000E+00, 1.000000000000000E+00
5.884900000000000E+04, 58848, 8.630576851051181E+03, 1.781815337740560E-01, 1.754861427480660E+02, 1.272059505647660E-02, 3.056605082370830E+02, 3.902262182050940E+01, 1.500000000000000E+02, 1.840000000000000E+00, 1.840000000000000E+00, 1.280000000000000E+00, 1.000000000000000E+00
5.884900000000000E+04, 58848, 1.315309804542350E+04, 4.371290610556440E-01, 5.446225802565290E+01, 3.599993214800000E+02, 3.380509069651010E+02, 7.848798801021530E+00, 1.500000000000000E+02, 1.840000000000000E+00, 1.840000000000000E+00, 1.280000000000000E+00, 1.000000000000000E+00
5.884900000000000E+04, 58848, 1.025610989393550E+04, 2.979329516745320E-01, 8.287497058782010E+01, 3.599999115506620E+02, 3.219174527852900E+02, 2.034473980331870E+01, 1.500000000000000E+02, 1.840000000000000E+00, 1.840000000000000E+00, 1.280000000000000E+00, 1.000000000000000E+00
5.884900000000000E+04, 58848, 1.408249189528150E+04, 5.046589609396031E-01, 1.105561194730210E+02, 1.799996612170260E+02, 2.200252176971470E+02, 3.479718260914030E+02, 1.500000000000000E+02, 1.840000000000000E+00, 1.840000000000000E+00, 1.280000000000000E+00, 1.000000000000000E+00
5.884900000000000E+04, 58848, 9.181236156515421E+03, 2.155088858387100E-01, 3.083772418613540E+01, 3.599983594829210E+02, 3.165507859654910E+02, 2.833068297832650E+01, 1.500000000000000E+02, 1.840000000000000E+00, 1.840000000000000E+00, 1.280000000000000E+00, 1.000000000000000E+00
